{
  "headers": [
    {
      "name": "Authorization",
      "value": "Bearer test_token"
    }
  ],
  "resources": [
    {
      "id": "resource",
      "method": "GET",
      "path": "/resource/:id",
      "scenario": "success"
    }
  ]
}
